{
 "content": null,
 "creation": "2024-04-26 12:17:39.940745",
 "docstatus": 0,
 "doctype": "Page",
 "idx": 0,
 "modified": "2024-04-26 12:17:39.940745",
 "modified_by": "Administrator",
 "module": "Charts",
 "name": "vue_chartsjs_example",
 "owner": "Administrator",
 "page_name": "vue_chartsjs_example",
 "roles": [],
 "script": null,
 "standard": "Yes",
 "style": null,
 "system_page": 0,
 "title": "vue_chartsjs_example"
}