{
 "content": null,
 "creation": "2024-04-25 20:49:54.204018",
 "docstatus": 0,
 "doctype": "Page",
 "idx": 0,
 "modified": "2024-04-25 20:49:54.204018",
 "modified_by": "Administrator",
 "module": "Charts",
 "name": "my-page",
 "owner": "Administrator",
 "page_name": "my-page",
 "roles": [],
 "script": null,
 "standard": "Yes",
 "style": null,
 "system_page": 0,
 "title": "my-page"
}